{
  "to": [
    "demo@email.com"
  ],
  "msg": {
    "title": "Info message",
    "body": "Should open web view",
    "sound": "default",
    "subtitle": "subtitle",
    "icon": "ic_launcher",
    "custom": {
      "type": "info-message",
      "messageId": "bdc2d9a2-00be-4794-81dc-9a9b601d9c5d",
      "messageUrl": "https://kitabsawti.com/"
    }
  }
}